80 # number of electrodes
# x y z
0.15	0	-0.25
0.138582	0.0574025	-0.25
0.106066	0.106066	-0.25
0.0574025	0.138582	-0.25
0	0.15	-0.25
-0.0574025	0.138582	-0.25
-0.106066	0.106066	-0.25
-0.138582	0.0574025	-0.25
-0.15	0	-0.25
-0.138582	-0.0574025	-0.25
-0.106066	-0.106066	-0.25
-0.0574025	-0.138582	-0.25
0	-0.15	-0.25
0.0574025	-0.138582	-0.25
0.106066	-0.106066	-0.25
0.138582	-0.0574025	-0.25
0.15	0	-0.2
0.138582	0.0574025	-0.2
0.106066	0.106066	-0.2
0.0574025	0.138582	-0.2
0	0.15	-0.2
-0.0574025	0.138582	-0.2
-0.106066	0.106066	-0.2
-0.138582	0.0574025	-0.2
-0.15	0	-0.2
-0.138582	-0.0574025	-0.2
-0.106066	-0.106066	-0.2
-0.0574025	-0.138582	-0.2
0	-0.15	-0.2
0.0574025	-0.138582	-0.2
0.106066	-0.106066	-0.2
0.138582	-0.0574025	-0.2
0.15	0	-0.15
0.138582	0.0574025	-0.15
0.106066	0.106066	-0.15
0.0574025	0.138582	-0.15
0	0.15	-0.15
-0.0574025	0.138582	-0.15
-0.106066	0.106066	-0.15
-0.138582	0.0574025	-0.15
-0.15	0	-0.15
-0.138582	-0.0574025	-0.15
-0.106066	-0.106066	-0.15
-0.0574025	-0.138582	-0.15
0	-0.15	-0.15
0.0574025	-0.138582	-0.15
0.106066	-0.106066	-0.15
0.138582	-0.0574025	-0.15
0.15	0	-0.1
0.138582	0.0574025	-0.1
0.106066	0.106066	-0.1
0.0574025	0.138582	-0.1
0	0.15	-0.1
-0.0574025	0.138582	-0.1
-0.106066	0.106066	-0.1
-0.138582	0.0574025	-0.1
-0.15	0	-0.1
-0.138582	-0.0574025	-0.1
-0.106066	-0.106066	-0.1
-0.0574025	-0.138582	-0.1
0	-0.15	-0.1
0.0574025	-0.138582	-0.1
0.106066	-0.106066	-0.1
0.138582	-0.0574025	-0.1
0.15	0	-0.05
0.138582	0.0574025	-0.05
0.106066	0.106066	-0.05
0.0574025	0.138582	-0.05
0	0.15	-0.05
-0.0574025	0.138582	-0.05
-0.106066	0.106066	-0.05
-0.138582	0.0574025	-0.05
-0.15	0	-0.05
-0.138582	-0.0574025	-0.05
-0.106066	-0.106066	-0.05
-0.0574025	-0.138582	-0.05
0	-0.15	-0.05
0.0574025	-0.138582	-0.05
0.106066	-0.106066	-0.05
0.138582	-0.0574025	-0.05
317 # number of data
#a b m n R err ip
   1	   2	   3	   4	-7.32096	0.00015365	-1.78009
   1	   2	  15	  16	-9.13713	0.00013203	-2.06464
   2	   3	   4	   5	-8.551	0.00013565	-1.62443
   2	   3	  16	   1	-11.2953	0.00011342	-1.34538
   3	   4	   5	   6	-8.82108	0.00012948	-2.0482
   4	   5	   6	   7	-7.91818	0.00015691	-1.3615
   5	   6	   7	   8	-6.56016	0.00016076	-1.6226
   6	   7	   8	   9	-6.82939	0.00014643	-1.53586
   7	   8	   9	  10	-7.72027	0.0001434	-1.94863
   8	   9	  10	  11	-8.28474	0.00013684	-1.68248
   9	  10	  11	  12	-7.06622	0.00017224	-1.49005
  10	  11	  12	  13	-7.67501	0.00013725	-1.7144
  11	  12	  13	  14	-7.29576	0.00015808	-1.77147
  12	  13	  14	  15	-9.47911	0.00012268	-1.84902
  13	  14	  15	  16	-9.82188	0.00011517	-1.81052
  14	  15	  16	   1	-10.403	0.00012448	-1.75517
   1	   2	   4	   5	-1.83331	0.00070666	-1.60642
   1	   2	  14	  15	-2.38488	0.0005278	-1.65719
   2	   3	   5	   6	-2.11258	0.00064857	-1.84776
   2	   3	  15	  16	-2.73302	0.00056474	-1.75515
   3	   4	   6	   7	-2.27111	0.00051169	-1.58665
   4	   5	   7	   8	-1.92144	0.00067153	-1.56596
   5	   6	   8	   9	-1.7806	0.00056927	-1.57349
   6	   7	   9	  10	-1.9224	0.00054042	-1.80278
   7	   8	  10	  11	-2.24986	0.00045448	-1.59191
   8	   9	  11	  12	-1.84052	0.00065347	-1.57179
   9	  10	  12	  13	-1.83396	0.00064066	-1.53858
  10	  11	  13	  14	-2.15595	0.00050667	-1.7953
  11	  12	  14	  15	-2.28403	0.00043171	-1.91149
  12	  13	  15	  16	-2.58724	0.00040748	-1.6948
  13	  14	  16	   1	-2.47019	0.00045082	-1.60818
   1	   2	   5	   6	-0.762476	0.00167442	-1.40187
   1	   2	  13	  14	-0.938055	0.00133294	-2.02072
   2	   3	   6	   7	-0.943707	0.00143827	-1.47216
   2	   3	  14	  15	-1.18833	0.00110387	-1.57576
   3	   4	   7	   8	-0.957462	0.00128988	-1.62245
   3	   4	  15	  16	-1.03517	0.00121091	-1.79562
   4	   5	   8	   9	-0.859189	0.00116746	-1.58865
   4	   5	  16	   1	-0.931369	0.00095446	-1.37055
   5	   6	   9	  10	-0.815074	0.00129474	-1.76694
   6	   7	  10	  11	-0.951879	0.00132315	-1.6689
   7	   8	  11	  12	-0.834561	0.00133514	-1.55289
   8	   9	  12	  13	-0.825568	0.00140884	-1.57806
   9	  10	  13	  14	-0.84725	0.00133522	-1.68089
  10	  11	  14	  15	-1.12816	0.00087088	-2.0039
  11	  12	  15	  16	-1.03688	0.00094228	-1.77759
  12	  13	  16	   1	-1.07499	0.00092258	-1.50011
   1	   2	   6	   7	-0.460619	0.00213233	-1.51784
   1	   2	  12	  13	-0.527802	0.00282727	-3.18487
   2	   3	   7	   8	-0.541268	0.00282319	-1.49344
   2	   3	  13	  14	-0.61387	0.0022064	-1.58564
   3	   4	   8	   9	-0.5676	0.00193524	-1.94978
   3	   4	  14	  15	-0.625804	0.00204877	-1.82706
   4	   5	   9	  10	-0.510311	0.00192486	-1.95183
   4	   5	  15	  16	-0.563956	0.0021853	-1.98382
   5	   6	  10	  11	-0.532912	0.00209367	-1.70634
   5	   6	  16	   1	-0.506201	0.00196002	-1.58616
   6	   7	  11	  12	-0.472941	0.00210655	-1.36103
   7	   8	  12	  13	-0.497368	0.00176627	-1.40137
   8	   9	  13	  14	-0.499915	0.00182952	-1.717
   9	  10	  14	  15	-0.586416	0.00169422	-1.77849
  10	  11	  15	  16	-0.671512	0.00189305	-1.7784
  11	  12	  16	   1	-0.581087	0.00181864	-1.55378
  17	  18	  19	  20	-9.01251	0.00013751	-1.41649
  17	  18	  31	  32	-6.70771	0.00017	-1.49137
  18	  19	  20	  21	-6.66387	0.00017223	-1.71199
  18	  19	  32	  17	-8.69969	8.836e-005	-1.30475
  19	  20	  21	  22	-8.0421	0.00013829	-1.66713
  20	  21	  22	  23	-6.25934	0.00020701	-1.60055
  21	  22	  23	  24	-5.79498	0.00020871	-1.4559
  22	  23	  24	  25	-7.19846	0.00011997	-1.16663
  23	  24	  25	  26	-6.14494	0.00012635	-1.73831
  24	  25	  26	  27	-7.08478	0.00013468	-1.66234
  25	  26	  27	  28	-6.00025	0.00017825	-1.41342
  26	  27	  28	  29	-6.17474	0.00016225	-1.52527
  27	  28	  29	  30	-5.63533	0.00017186	-1.93573
  28	  29	  30	  31	-10.0291	0.00010943	-1.32464
  29	  30	  31	  32	-12.9918	8.265e-005	-1.65687
  30	  31	  32	  17	-10.4113	8.267e-005	-1.62318
  17	  18	  20	  21	-2.20338	0.00047509	-1.4894
  17	  18	  30	  31	-2.30654	0.00052558	-1.43066
  18	  19	  21	  22	-1.9329	0.0004859	-1.43892
  18	  19	  31	  32	-2.16517	0.00048459	-1.62673
  19	  20	  22	  23	-2.11668	0.00042799	-1.7489
  19	  20	  32	  17	-2.94455	0.00033416	-1.6937
  20	  21	  23	  24	-1.82607	0.00064743	-1.68163
  21	  22	  24	  25	-2.10882	0.00052302	-1.48161
  22	  23	  25	  26	-1.81687	0.00051679	-1.48992
  23	  24	  26	  27	-1.95172	0.00047765	-1.70406
  24	  25	  27	  28	-1.9746	0.00042253	-1.61958
  25	  26	  28	  29	-1.79888	0.0004807	-1.57231
  26	  27	  29	  30	-1.82334	0.00059604	-1.80374
  27	  28	  30	  31	-2.35171	0.00037621	-1.61512
  28	  29	  31	  32	-3.68866	0.00025637	-1.65533
  29	  30	  32	  17	-3.33357	0.00026674	-1.75896
  17	  18	  21	  22	-0.885884	0.00129197	-1.40023
  17	  18	  29	  30	-1.0452	0.00100753	-2.11794
  18	  19	  22	  23	-0.827952	0.00111705	-1.66045
  18	  19	  30	  31	-1.34654	0.00075711	-1.66081
  19	  20	  23	  24	-0.980111	0.00097368	-1.78761
  19	  20	  31	  32	-1.16649	0.00091057	-1.82257
  20	  21	  24	  25	-1.02603	0.00121698	-1.77372
  20	  21	  32	  17	-1.14796	0.00103782	-1.62943
  21	  22	  25	  26	-0.880415	0.00112418	-1.59056
  22	  23	  26	  27	-0.923035	0.00085765	-1.63314
  23	  24	  27	  28	-0.859434	0.00099592	-1.6981
  24	  25	  28	  29	-0.977178	0.00097471	-1.72574
  25	  26	  29	  30	-0.853727	0.00116604	-1.86696
  26	  27	  30	  31	-1.10407	0.00097936	-1.66672
  27	  28	  31	  32	-1.28084	0.00075937	-1.7371
  28	  29	  32	  17	-1.44605	0.00063647	-1.73452
  17	  18	  22	  23	-0.521105	0.00194939	-1.48515
  17	  18	  28	  29	-0.60559	0.00163265	-0.257401
  18	  19	  23	  24	-0.502436	0.00238893	-2.06223
  18	  19	  29	  30	-0.828376	0.00128718	-1.46916
  19	  20	  24	  25	-0.70538	0.00140045	-2.11261
  19	  20	  30	  31	-0.869019	0.00116202	-1.92437
  20	  21	  25	  26	-0.550944	0.00172181	-1.5871
  20	  21	  31	  32	-0.618458	0.00198515	-1.81439
  21	  22	  26	  27	-0.581758	0.00173362	-1.67233
  21	  22	  32	  17	-0.624086	0.00145491	-1.33951
  22	  23	  27	  28	-0.525381	0.00173439	-1.68454
  23	  24	  28	  29	-0.549903	0.00172167	-1.90627
  24	  25	  29	  30	-0.605446	0.00117111	-1.97077
  25	  26	  30	  31	-0.648132	0.00147963	-1.71163
  26	  27	  31	  32	-0.747352	0.00139611	-1.86098
  27	  28	  32	  17	-0.709875	0.00097137	-1.75032
  33	  34	  35	  36	-6.57281	0.00017057	-1.52163
  33	  34	  47	  48	-7.10633	0.00012542	-1.89363
  34	  35	  36	  37	-7.92932	0.00011931	-1.79386
  34	  35	  48	  33	-8.08875	0.00011786	-0.728657
  35	  36	  37	  38	-8.19161	0.00011458	-1.85394
  36	  37	  38	  39	-6.84983	0.00015949	-1.60634
  37	  38	  39	  40	-6.37697	0.00016139	-1.63646
  38	  39	  40	  41	-6.37747	0.00016063	-1.89646
  39	  40	  41	  42	-7.88837	0.00018296	-1.26072
  40	  41	  42	  43	-7.33369	0.00022167	-1.76965
  41	  42	  43	  44	-6.46387	0.00015892	-1.82528
  42	  43	  44	  45	-6.87905	0.00011388	-1.17246
  43	  44	  45	  46	-7.37259	0.00015563	-2.14127
  44	  45	  46	  47	-8.47982	0.0001252	-1.73802
  45	  46	  47	  48	-8.34802	0.00013056	-1.92949
  46	  47	  48	  33	-8.73007	0.00010823	-1.62779
  33	  34	  36	  37	-2.14435	0.00048353	-1.75067
  33	  34	  46	  47	-2.77353	0.00035604	-2.20439
  34	  35	  37	  38	-2.24321	0.00042622	-1.71983
  34	  35	  47	  48	-2.75498	0.00041498	-1.78379
  35	  36	  38	  39	-2.25931	0.00039309	-1.78264
  35	  36	  48	  33	-2.71271	0.00039119	-0.982442
  36	  37	  39	  40	-2.36063	0.00046322	-1.74393
  37	  38	  40	  41	-1.94556	0.00044834	-1.82402
  38	  39	  41	  42	-2.01275	0.0004183	-1.39608
  39	  40	  42	  43	-2.41462	0.00058485	-1.75731
  40	  41	  43	  44	-2.14864	0.00086184	-1.99378
  41	  42	  44	  45	-2.10878	0.00055184	-1.346
  42	  43	  45	  46	-2.32889	0.00046527	-1.86844
  43	  44	  46	  47	-2.72427	0.0004053	-1.82725
  44	  45	  47	  48	-2.86	0.00040224	-1.87134
  45	  46	  48	  33	-3.08593	0.00025936	-1.53251
  33	  34	  37	  38	-0.910664	0.00101094	-1.70382
  33	  34	  45	  46	-1.37336	0.00081133	-1.95334
  34	  35	  38	  39	-0.991121	0.00090687	-1.63213
  34	  35	  46	  47	-1.54396	0.00067436	-1.64716
  35	  36	  39	  40	-1.22772	0.00085806	-1.81406
  35	  36	  47	  48	-1.3859	0.00073536	-1.82575
  36	  37	  40	  41	-1.0931	0.00079948	-1.94728
  36	  37	  48	  33	-1.31542	0.0009134	-0.948326
  37	  38	  41	  42	-0.937502	0.00103246	-1.38044
  38	  39	  42	  43	-1.00856	0.00090251	-1.72156
  39	  40	  43	  44	-1.10887	0.00118381	-1.86639
  40	  41	  44	  45	-1.07488	0.00140915	-1.41419
  41	  42	  45	  46	-1.10065	0.00083083	-1.83237
  42	  43	  46	  47	-1.3381	0.0007537	-1.80502
  43	  44	  47	  48	-1.29412	0.00074277	-1.8764
  44	  45	  48	  33	-1.46995	0.00072499	-1.39375
  33	  34	  44	  45	-0.775683	0.00144291	-0.821858
  34	  35	  39	  40	-0.703378	0.00131176	-1.23722
  34	  35	  45	  46	-0.918392	0.00120141	-1.83389
  35	  36	  40	  41	-0.720106	0.00156745	-2.1111
  35	  36	  46	  47	-0.976595	0.00122237	-1.96072
  36	  37	  41	  42	-0.678706	0.00127553	-1.62512
  36	  37	  47	  48	-0.855049	0.00111272	-1.74117
  37	  38	  42	  43	-0.618206	0.00142127	-1.71932
  37	  38	  48	  33	-0.704047	0.00163414	-0.983404
  38	  39	  43	  44	-0.616118	0.00158762	-1.98689
  39	  40	  44	  45	-0.721547	0.00238173	-1.34562
  40	  41	  45	  46	-0.72646	0.00237692	-1.97378
  41	  42	  46	  47	-0.802447	0.00134211	-1.78055
  42	  43	  47	  48	-0.794134	0.00139523	-1.80182
  43	  44	  48	  33	-0.799059	0.00135793	-1.28003
  49	  50	  51	  52	-7.91065	0.00014206	-1.63623
  49	  50	  63	  64	-7.02422	0.00015412	-1.79003
  50	  51	  52	  53	-9.84135	0.00010127	-1.83484
  50	  51	  64	  49	-8.37806	0.00012728	-1.96535
  51	  52	  53	  54	-9.09654	0.00011049	-2.2587
  52	  53	  54	  55	-9.10688	0.00013558	-1.66512
  53	  54	  55	  56	-7.1127	0.00015472	-1.82795
  54	  55	  56	  57	-8.52142	0.00014091	-2.07354
  55	  56	  57	  58	-8.25966	0.00014089	-2.18731
  56	  57	  58	  59	-8.5445	0.00015105	-1.94048
  57	  58	  59	  60	-8.69485	0.00016189	-1.97665
  58	  59	  60	  61	-9.16277	0.0001381	-1.73564
  59	  60	  61	  62	-10.5881	0.00010559	-1.78987
  60	  61	  62	  63	-10.7544	0.00011676	-2.09008
  61	  62	  63	  64	-8.80155	0.00011218	-2.82612
  62	  63	  64	  49	-8.58928	0.00015285	-1.90035
  49	  50	  52	  53	-2.64358	0.00044749	-1.69062
  49	  50	  62	  63	-2.98649	0.00037287	-1.79089
  50	  51	  53	  54	-2.47604	0.00051086	-1.93044
  50	  51	  63	  64	-2.60641	0.00047173	-1.88168
  51	  52	  54	  55	-2.8633	0.00053221	-1.85782
  51	  52	  64	  49	-2.48738	0.00044107	-1.73454
  52	  53	  55	  56	-3.17253	0.00034221	-1.69139
  53	  54	  56	  57	-2.30023	0.00062451	-1.91833
  54	  55	  57	  58	-2.51933	0.00044402	-2.03159
  55	  56	  58	  59	-2.6841	0.00036377	-1.61239
  56	  57	  59	  60	-2.65857	0.00038038	-1.94664
  57	  58	  60	  61	-2.67222	0.00039328	-1.81732
  58	  59	  61	  62	-3.0196	0.0004209	-1.7467
  59	  60	  62	  63	-3.66157	0.0003738	-2.0468
  60	  61	  63	  64	-2.77414	0.00039972	-2.30948
  61	  62	  64	  49	-2.85104	0.00040504	-2.0414
  49	  50	  53	  54	-1.10657	0.00097019	-1.74721
  49	  50	  61	  62	-1.54442	0.00055352	-2.28627
  50	  51	  54	  55	-1.30728	0.00094814	-1.64737
  50	  51	  62	  63	-1.82571	0.00057907	-1.88544
  51	  52	  55	  56	-1.54856	0.00080506	-1.74064
  51	  52	  63	  64	-1.38991	0.00089627	-1.76984
  52	  53	  56	  57	-1.5675	0.00064623	-1.7604
  52	  53	  64	  49	-1.38195	0.00083507	-2.11503
  53	  54	  57	  58	-1.08334	0.00107897	-1.94031
  54	  55	  58	  59	-1.25668	0.00094146	-1.7351
  55	  56	  59	  60	-1.39872	0.0007169	-1.74977
  56	  57	  60	  61	-1.37547	0.00081531	-1.905
  57	  58	  61	  62	-1.52258	0.00076729	-1.7719
  58	  59	  62	  63	-1.70911	0.00064374	-1.73476
  59	  60	  63	  64	-1.44351	0.00088268	-2.42767
  60	  61	  64	  49	-1.42348	0.000661	-1.64937
  49	  50	  54	  55	-0.765966	0.00125387	-1.53618
  49	  50	  60	  61	-0.924396	0.00083536	-1.67014
  50	  51	  55	  56	-0.906835	0.00133669	-1.68267
  50	  51	  61	  62	-1.13418	0.00093997	-2.04831
  51	  52	  56	  57	-0.961639	0.00118786	-1.93182
  51	  52	  62	  63	-1.23131	0.00100921	-1.83158
  52	  53	  57	  58	-0.928629	0.00140767	-1.83054
  52	  53	  63	  64	-0.977804	0.00128862	-1.78567
  53	  54	  58	  59	-0.690572	0.00159623	-1.6604
  53	  54	  64	  49	-0.719863	0.00185483	-2.32374
  54	  55	  59	  60	-0.82751	0.00140173	-1.86975
  55	  56	  60	  61	-0.931045	0.00106127	-1.71812
  56	  57	  61	  62	-1.04135	0.00104954	-2.01106
  57	  58	  62	  63	-1.09153	0.00100259	-1.7069
  58	  59	  63	  64	-0.857651	0.00131912	-2.12528
  59	  60	  64	  49	-0.90016	0.00128746	-1.86908
  65	  66	  67	  68	-12.9125	0.00011145	-1.64734
  65	  66	  79	  80	-10.0037	0.00013293	-1.80079
  66	  67	  68	  69	-15.3992	7.747e-005	-2.17466
  66	  67	  80	  65	-9.6854	0.00011442	-2.52424
  67	  68	  69	  70	-15.4432	8.197e-005	-1.20083
  69	  70	  71	  72	-10.8312	0.00012579	-2.40616
  70	  71	  72	  73	-13.1506	9.536e-005	-1.74275
  71	  72	  73	  74	-14.1611	9.534e-005	-2.46859
  72	  73	  74	  75	-11.6373	0.00015663	-1.62506
  73	  74	  75	  76	-13.356	0.0001049	-1.92517
  74	  75	  76	  77	-14.0155	9.357e-005	-2.12212
  75	  76	  77	  78	-16.3045	9.992e-005	-1.82985
  76	  77	  78	  79	-16.4049	8.582e-005	-2.30171
  77	  78	  79	  80	-11.9333	0.00013805	-2.45827
  78	  79	  80	  65	-11.5709	0.00011236	-2.03799
  65	  66	  68	  69	-4.61709	0.00028451	-2.06808
  65	  66	  78	  79	-4.23046	0.00035392	-1.73754
  66	  67	  69	  70	-4.23543	0.00029579	-1.12488
  66	  67	  79	  80	-3.07478	0.00048699	-1.86747
  67	  68	  70	  71	-4.80841	0.00029208	-1.91788
  67	  68	  80	  65	-3.76496	0.00035851	-2.21068
  68	  69	  71	  72	-4.68185	0.00037065	-2.498
  69	  70	  72	  73	-3.41464	0.00040907	-1.95645
  70	  71	  73	  74	-4.28855	0.00040835	-2.00472
  71	  72	  74	  75	-4.60248	0.00030681	-1.79735
  72	  73	  75	  76	-3.68656	0.00041926	-1.71653
  73	  74	  76	  77	-4.6375	0.00027636	-1.87245
  74	  75	  77	  78	-4.9334	0.00026015	-1.83029
  75	  76	  78	  79	-5.56011	0.00028511	-2.04019
  76	  77	  79	  80	-3.52537	0.00053643	-2.26897
  77	  78	  80	  65	-3.72877	0.00041161	-1.99104
  65	  66	  69	  70	-1.96242	0.00080583	-1.33786
  65	  66	  77	  78	-2.15868	0.00055636	-1.99047
  66	  67	  70	  71	-2.0667	0.00052014	-1.69565
  66	  67	  78	  79	-2.1512	0.00055244	-1.7924
  67	  68	  71	  72	-2.75493	0.00061668	-2.4332
  67	  68	  79	  80	-1.93368	0.00070653	-1.92518
  68	  69	  72	  73	-2.15195	0.0006208	-1.87767
  68	  69	  80	  65	-1.96931	0.00069038	-2.29509
  69	  70	  73	  74	-1.76899	0.0007453	-2.23772
  70	  71	  74	  75	-2.0186	0.00070498	-1.62914
  71	  72	  75	  76	-2.42467	0.00059842	-1.98596
  72	  73	  76	  77	-2.03959	0.00063884	-1.8726
  73	  74	  77	  78	-2.73255	0.00051144	-1.86605
  74	  75	  78	  79	-2.77149	0.00049566	-1.83601
  75	  76	  79	  80	-1.99676	0.0006446	-2.08757
  76	  77	  80	  65	-1.74966	0.00085158	-1.98509
  65	  66	  70	  71	-1.24807	0.00103291	-1.48436
  65	  66	  76	  77	-1.24415	0.00100309	-1.6742
  66	  67	  71	  72	-1.44841	0.00084891	-1.91435
  66	  67	  77	  78	-1.37092	0.00096363	-2.16593
  67	  68	  72	  73	-1.49103	0.00096043	-1.80924
  67	  68	  78	  79	-1.7103	0.00084164	-1.90236
  68	  69	  73	  74	-1.35568	0.00124133	-2.27342
  68	  69	  79	  80	-1.23587	0.00116742	-2.02089
  69	  70	  74	  75	-1.04324	0.00123864	-1.64583
  69	  70	  80	  65	-1.03715	0.00127973	-1.80788
  70	  71	  75	  76	-1.2958	0.00100962	-1.80445
  71	  72	  76	  77	-1.61218	0.00080491	-2.21854
  72	  73	  77	  78	-1.53095	0.00092034	-1.80906
  73	  74	  78	  79	-1.85317	0.00088376	-1.89774
  74	  75	  79	  80	-1.24323	0.00095914	-1.88762
  75	  76	  80	  65	-1.20686	0.00126064	-1.86567
