144# Number of sensors
#x	z
1.75	-0.1
1.75	-0.2
1.75	-0.3
1.75	-0.4
1.75	-0.5
1.75	-0.6
1.75	-0.7
1.75	-0.8
1.75	-0.9
1.75	-1
1.75	-1.1
1.75	-1.2
1.75	-1.3
1.75	-1.4
1.75	-1.5
1.75	-1.6
2.25	-0.1
2.25	-0.2
2.25	-0.3
2.25	-0.4
2.25	-0.5
2.25	-0.6
2.25	-0.7
2.25	-0.8
2.25	-0.9
2.25	-1
2.25	-1.1
2.25	-1.2
2.25	-1.3
2.25	-1.4
2.25	-1.5
2.25	-1.6
2.75	-0.1
2.75	-0.2
2.75	-0.3
2.75	-0.4
2.75	-0.5
2.75	-0.6
2.75	-0.7
2.75	-0.8
2.75	-0.9
2.75	-1
2.75	-1.1
2.75	-1.2
2.75	-1.3
2.75	-1.4
2.75	-1.5
2.75	-1.6
3.25	-0.1
3.25	-0.2
3.25	-0.3
3.25	-0.4
3.25	-0.5
3.25	-0.6
3.25	-0.7
3.25	-0.8
3.25	-0.9
3.25	-1
3.25	-1.1
3.25	-1.2
3.25	-1.3
3.25	-1.4
3.25	-1.5
3.25	-1.6
3.75	-0.1
3.75	-0.2
3.75	-0.3
3.75	-0.4
3.75	-0.5
3.75	-0.6
3.75	-0.7
3.75	-0.8
3.75	-0.9
3.75	-1
3.75	-1.1
3.75	-1.2
3.75	-1.3
3.75	-1.4
3.75	-1.5
3.75	-1.6
4.25	-0.1
4.25	-0.2
4.25	-0.3
4.25	-0.4
4.25	-0.5
4.25	-0.6
4.25	-0.7
4.25	-0.8
4.25	-0.9
4.25	-1
4.25	-1.1
4.25	-1.2
4.25	-1.3
4.25	-1.4
4.25	-1.5
4.25	-1.6
4.75	-0.1
4.75	-0.2
4.75	-0.3
4.75	-0.4
4.75	-0.5
4.75	-0.6
4.75	-0.7
4.75	-0.8
4.75	-0.9
4.75	-1
4.75	-1.1
4.75	-1.2
4.75	-1.3
4.75	-1.4
4.75	-1.5
4.75	-1.6
5.25	-0.1
5.25	-0.2
5.25	-0.3
5.25	-0.4
5.25	-0.5
5.25	-0.6
5.25	-0.7
5.25	-0.8
5.25	-0.9
5.25	-1
5.25	-1.1
5.25	-1.2
5.25	-1.3
5.25	-1.4
5.25	-1.5
5.25	-1.6
5.75	-0.1
5.75	-0.2
5.75	-0.3
5.75	-0.4
5.75	-0.5
5.75	-0.6
5.75	-0.7
5.75	-0.8
5.75	-0.9
5.75	-1
5.75	-1.1
5.75	-1.2
5.75	-1.3
5.75	-1.4
5.75	-1.5
5.75	-1.6
1256# Number of data
#a	b	m	n	r	err
16	32	15	31	65.31	0.0301531
16	32	31	14	-42.67	0.0302344
16	32	14	30	23.47	0.0304261
16	32	30	13	-19.61	0.0305099
16	32	13	29	12.68	0.0307886
16	32	29	12	-11.42	0.0308757
16	32	12	28	8.68	0.0311521
16	32	28	11	-6.93	0.031443
16	32	11	27	5.37	0.0318622
16	32	27	10	-3.55	0.0328169
16	32	10	26	2.87	0.0334843
16	32	26	9	-2.12	0.034717
16	32	9	25	1.76	0.0356818
16	32	25	8	-1.4	0.0371429
16	32	8	24	1.19	0.0384034
16	32	24	7	-0.98	0.0402041
15	31	14	30	75.16	0.030133
15	31	30	13	-61.09	0.0301637
15	31	13	29	36.75	0.0302721
15	31	29	12	-33.45	0.030299
15	31	12	28	24.9	0.0304016
15	31	28	11	-19.44	0.0305144
15	31	11	27	15.53	0.0306439
15	31	27	10	-9.59	0.0310428
15	31	10	26	7.07	0.0314144
15	31	26	9	-4.94	0.0320243
15	31	9	25	4.06	0.0324631
15	31	25	8	-3.09	0.0332362
15	31	8	24	2.6	0.0338462
15	31	24	7	-2.06	0.0348544
15	31	7	23	1.77	0.0356497
15	31	23	6	-1.46	0.0368493
14	30	13	29	87.02	0.0301149
14	30	29	12	-78.05	0.0301281
14	30	12	28	54.06	0.030185
14	30	28	11	-41.87	0.0302388
14	30	11	27	32.69	0.0303059
14	30	27	10	-19.29	0.0305184
14	30	10	26	15.23	0.0306566
14	30	26	9	-10.28	0.0309728
14	30	9	25	7.28	0.0313736
14	30	25	8	-5.38	0.0318587
14	30	8	24	4.49	0.0322272
14	30	24	7	-3.48	0.0328736
14	30	7	23	2.96	0.0333784
14	30	23	6	-2.39	0.0341841
14	30	6	22	2.08	0.0348077
14	30	22	5	-1.68	0.0359524
13	29	12	28	92.62	0.030108
13	29	28	11	-73.35	0.0301363
13	29	11	27	47.28	0.0302115
13	29	27	10	-31.65	0.030316
13	29	10	26	22.2	0.0304505
13	29	26	9	-16.17	0.0306184
13	29	9	25	12.15	0.030823
13	29	25	8	-9.48	0.0310549
13	29	8	24	6.45	0.0315504
13	29	24	7	-5.2	0.0319231
13	29	7	23	4.18	0.0323923
13	29	23	6	-3.5	0.0328571
13	29	6	22	2.89	0.0334602
13	29	22	5	-2.42	0.0341322
13	29	5	21	2.08	0.0348077
13	29	21	4	-1.85	0.0354054
12	28	11	27	84.88	0.0301178
12	28	27	10	-62.23	0.0301607
12	28	10	26	36.34	0.0302752
12	28	26	9	-27.93	0.030358
12	28	9	25	19.03	0.0305255
12	28	25	8	-15.3	0.0306536
12	28	8	24	11.14	0.0308977
12	28	24	7	-9.2	0.031087
12	28	7	23	6.17	0.0316207
12	28	23	6	-5.27	0.0318975
12	28	6	22	4.13	0.0324213
12	28	22	5	-3.53	0.0328329
12	28	5	21	2.91	0.0334364
12	28	21	4	-2.63	0.0338023
12	28	4	20	2.22	0.0345045
12	28	20	3	-2.08	0.0348077
11	27	10	26	86.6	0.0301155
11	27	26	9	-62.92	0.0301589
11	27	9	25	38.18	0.0302619
11	27	25	8	-29.67	0.030337
11	27	8	24	20.25	0.0304938
11	27	24	7	-16.29	0.0306139
11	27	7	23	11.85	0.0308439
11	27	23	6	-9.92	0.0310081
11	27	6	22	6.6	0.0315152
11	27	22	5	-5.51	0.0318149
11	27	5	21	4.43	0.0322573
11	27	21	4	-3.97	0.0325189
11	27	4	20	3.27	0.0330581
11	27	20	3	-3.05	0.0332787
11	27	3	19	2.73	0.033663
11	27	19	2	-2.55	0.0339216
10	26	9	25	96.94	0.0301032
10	26	25	8	-69.57	0.0301437
10	26	8	24	42.76	0.0302339
10	26	24	7	-32.65	0.0303063
10	26	7	23	22.53	0.0304439
10	26	23	6	-18.12	0.0305519
10	26	6	22	13.4	0.0307463
10	26	22	5	-10.72	0.0309328
10	26	5	21	7.39	0.0313532
10	26	21	4	-6.43	0.0315552
10	26	4	20	5.23	0.031912
10	26	20	3	-4.81	0.032079
10	26	3	19	4.27	0.0323419
10	26	19	2	-3.95	0.0325316
10	26	2	18	3.76	0.0326596
10	26	18	1	-3.46	0.0328902
9	25	8	24	102	0.030098
9	25	24	7	-72.86	0.0301372
9	25	7	23	44.92	0.0302226
9	25	23	6	-34.66	0.0302885
9	25	6	22	24.15	0.0304141
9	25	22	5	-18.44	0.0305423
9	25	5	21	13.93	0.0307179
9	25	21	4	-11.93	0.0308382
9	25	4	20	8.18	0.0312225
9	25	20	3	-7.39	0.0313532
9	25	3	19	6.49	0.0315408
9	25	19	2	-5.96	0.0316779
9	25	2	18	5.63	0.0317762
9	25	18	1	-5.11	0.0319569
9	25	1	17	4.81	0.032079
8	24	7	23	106.68	0.0300937
8	24	23	6	-77.16	0.0301296
8	24	6	22	48.38	0.0302067
8	24	22	5	-34.63	0.0302888
8	24	5	21	24.44	0.0304092
8	24	21	4	-20.22	0.0304946
8	24	4	20	15.09	0.0306627
8	24	20	3	-13.48	0.0307418
8	24	3	19	9.99	0.031001
8	24	19	2	-9.09	0.0311001
8	24	2	18	8.51	0.0311751
8	24	18	1	-7.62	0.0313123
8	24	1	17	7.1	0.0314085
7	23	6	22	117.17	0.0300853
7	23	22	5	-77.14	0.0301296
7	23	5	21	47.99	0.0302084
7	23	21	4	-38.32	0.030261
7	23	4	20	26.17	0.0303821
7	23	20	3	-22.86	0.0304374
7	23	3	19	18.84	0.0305308
7	23	19	2	-16.95	0.03059
7	23	2	18	13.65	0.0307326
7	23	18	1	-12.01	0.0308326
7	23	1	17	11.05	0.030905
6	22	1	17	16.87	0.0305928
3	19	2	18	264.87	0.0300378
3	19	18	1	-183.87	0.0300544
3	19	1	17	136.73	0.0300731
2	18	1	17	826.44	0.0300121
32	48	31	47	64.09	0.030156
32	48	47	30	-45.45	0.03022
32	48	30	46	29.47	0.0303393
32	48	46	29	-22.51	0.0304442
32	48	29	45	13.44	0.030744
32	48	45	28	-10.65	0.030939
32	48	28	44	7.08	0.0314124
32	48	44	27	-5.73	0.0317452
32	48	27	43	3.95	0.0325316
32	48	43	26	-3.25	0.0330769
32	48	26	42	2.46	0.034065
32	48	42	25	-2.11	0.0347393
32	48	25	41	1.65	0.0360606
32	48	41	24	-1.44	0.0369444
32	48	24	40	1.15	0.0386957
32	48	40	23	-1.01	0.039901
31	47	30	46	89.15	0.0301122
31	47	46	29	-64.6	0.0301548
31	47	29	45	36.12	0.0302769
31	47	45	28	-27.57	0.0303627
31	47	28	44	17.86	0.0305599
31	47	44	27	-13.75	0.0307273
31	47	27	43	9.63	0.0310384
31	47	43	26	-7.68	0.0313021
31	47	26	42	5.11	0.0319569
31	47	42	25	-4.25	0.0323529
31	47	25	41	3.27	0.0330581
31	47	41	24	-2.77	0.0336101
31	47	24	40	2.18	0.0345872
31	47	40	23	-1.88	0.0353191
31	47	23	39	1.52	0.0365789
31	47	39	22	-1.33	0.0375188
30	46	29	45	84.62	0.0301182
30	46	45	28	-60.34	0.0301657
30	46	28	44	35.97	0.030278
30	46	44	27	-26.84	0.0303726
30	46	27	43	18.22	0.0305488
30	46	43	26	-14.05	0.0307117
30	46	26	42	10.24	0.0309766
30	46	42	25	-8.28	0.0312077
30	46	25	41	5.7	0.0317544
30	46	41	24	-4.7	0.0321277
30	46	24	40	3.67	0.0327248
30	46	40	23	-3.09	0.0332362
30	46	23	39	2.48	0.0340323
30	46	39	22	-2.14	0.0346729
30	46	22	38	1.79	0.0355866
30	46	38	21	-1.57	0.0363694
29	45	28	44	91.31	0.0301095
29	45	44	27	-64.88	0.0301541
29	45	27	43	38.74	0.0302581
29	45	43	26	-29.09	0.0303438
29	45	26	42	19.77	0.0305058
29	45	42	25	-15.73	0.0306357
29	45	25	41	11.44	0.0308741
29	45	41	24	-9.3	0.0310753
29	45	24	40	6.38	0.0315674
29	45	40	23	-5.29	0.0318904
29	45	23	39	4.15	0.0324096
29	45	39	22	-3.52	0.0328409
29	45	22	38	2.88	0.0334722
29	45	38	21	-2.51	0.0339841
29	45	21	37	2.1	0.0347619
29	45	37	20	-1.86	0.0353763
28	44	27	43	94.08	0.0301063
28	44	43	26	-67.56	0.030148
28	44	26	42	40.15	0.0302491
28	44	42	25	-31.17	0.0303208
28	44	25	41	21.05	0.0304751
28	44	41	24	-16.84	0.0305938
28	44	24	40	12.15	0.030823
28	44	40	23	-9.94	0.031006
28	44	23	39	6.78	0.0314749
28	44	39	22	-5.68	0.0317606
28	44	22	38	4.51	0.0322173
28	44	38	21	-3.89	0.0325707
28	44	21	37	3.19	0.0331348
28	44	37	20	-2.8	0.0335714
28	44	20	36	2.37	0.0342194
28	44	36	19	-2.18	0.0345872
27	43	26	42	95.49	0.0301047
27	43	42	25	-70.4	0.030142
27	43	25	41	42.1	0.0302375
27	43	41	24	-32.52	0.0303075
27	43	24	40	21.99	0.0304548
27	43	40	23	-17.53	0.0305705
27	43	23	39	12.71	0.0307868
27	43	39	22	-10.4	0.0309615
27	43	22	38	7.28	0.0313736
27	43	38	21	-6.17	0.0316207
27	43	21	37	4.95	0.0320202
27	43	37	20	-4.27	0.0323419
27	43	20	36	3.55	0.0328169
27	43	36	19	-3.24	0.0330864
27	43	19	35	2.85	0.0335088
27	43	35	18	-2.7	0.0337037
26	42	25	41	99.73	0.0301003
26	42	41	24	-72.48	0.030138
26	42	24	40	43.52	0.0302298
26	42	40	23	-33.29	0.0303004
26	42	23	39	22.69	0.0304407
26	42	39	22	-17.99	0.0305559
26	42	22	38	13.36	0.0307485
26	42	38	21	-11.04	0.0309058
26	42	21	37	7.81	0.0312804
26	42	37	20	-6.56	0.0315244
26	42	20	36	5.33	0.0318762
26	42	36	19	-4.79	0.0320877
26	42	19	35	4.15	0.0324096
26	42	35	18	-3.92	0.032551
26	42	18	34	3.68	0.0327174
26	42	34	17	-3.46	0.0328902
25	41	24	40	102.97	0.0300971
25	41	40	23	-74.52	0.0301342
25	41	23	39	44.8	0.0302232
25	41	39	22	-34.24	0.0302921
25	41	22	38	23.77	0.0304207
25	41	38	21	-19.17	0.0305216
25	41	21	37	14.31	0.0306988
25	41	37	20	-11.73	0.0308525
25	41	20	36	8.23	0.0312151
25	41	36	19	-7.27	0.0313755
25	41	19	35	6.16	0.0316234
25	41	35	18	-5.77	0.0317331
25	41	18	34	5.36	0.0318657
25	41	34	17	-5.01	0.031996
25	41	17	33	4.87	0.0320534
24	40	23	39	105.71	0.0300946
24	40	39	22	-76.55	0.0301306
24	40	22	38	47.03	0.0302126
24	40	38	21	-36.69	0.0302726
24	40	21	37	25.49	0.0303923
24	40	37	20	-20.28	0.0304931
24	40	20	36	14.93	0.0306698
24	40	36	19	-12.95	0.0307722
24	40	19	35	9.48	0.0310549
24	40	35	18	-8.79	0.0311377
24	40	18	34	8.04	0.0312438
24	40	34	17	-7.47	0.0313387
24	40	17	33	7.17	0.0313947
23	39	22	38	116.03	0.0300862
23	39	38	21	-85.96	0.0301163
23	39	21	37	52.32	0.0301911
23	39	37	20	-39.89	0.0302507
23	39	20	36	26.68	0.0303748
23	39	36	19	-22.63	0.0304419
23	39	19	35	17.42	0.0305741
23	39	35	18	-15.96	0.0306266
23	39	18	34	12.74	0.0307849
23	39	34	17	-11.66	0.0308576
23	39	17	33	11.06	0.0309042
22	38	21	37	126.98	0.0300788
22	38	37	20	-90.81	0.0301101
22	38	20	36	51.69	0.0301935
22	38	36	19	-42.41	0.0302358
22	38	19	35	29.9	0.0303344
22	38	35	18	-27	0.0303704
22	38	18	34	23.52	0.0304252
22	38	34	17	-21.22	0.0304713
22	38	17	33	17.53	0.0305705
21	37	20	36	116.99	0.0300855
21	37	36	19	-89.41	0.0301118
21	37	19	35	53.83	0.0301858
21	37	35	18	-47.21	0.0302118
21	37	18	34	39.45	0.0302535
21	37	34	17	-34.82	0.0302872
21	37	17	33	31.62	0.0303163
18	34	17	33	396.7	0.0300252
48	64	47	63	60.11	0.0301664
48	64	63	46	-44.66	0.0302239
48	64	46	62	27.44	0.0303644
48	64	62	45	-18.27	0.0305473
48	64	45	61	12.6	0.0307937
48	64	61	44	-9.04	0.0311062
48	64	44	60	6.67	0.0314993
48	64	60	43	-5.12	0.0319531
48	64	43	59	3.72	0.0326882
48	64	59	42	-2.96	0.0333784
48	64	42	58	2.34	0.0342735
48	64	58	41	-1.92	0.0352083
48	64	41	57	1.55	0.0364516
48	64	57	40	-1.3	0.0376923
48	64	40	56	1.07	0.0393458
48	64	56	39	-0.91	0.040989
47	63	46	62	81.79	0.0301223
47	63	62	45	-52.9	0.030189
47	63	45	61	32.96	0.0303034
47	63	61	44	-22.97	0.0304354
47	63	44	60	16.09	0.0306215
47	63	60	43	-12.07	0.0308285
47	63	43	59	8.82	0.0311338
47	63	59	42	-6.9	0.0314493
47	63	42	58	4.77	0.0320964
47	63	58	41	-3.83	0.032611
47	63	41	57	3.03	0.0333003
47	63	57	40	-2.5	0.034
47	63	40	56	2.01	0.0349751
47	63	56	39	-1.69	0.0359172
47	63	39	55	1.39	0.0371942
47	63	55	38	-1.2	0.0383333
46	62	45	61	80.19	0.0301247
46	62	61	44	-55.52	0.0301801
46	62	44	60	33.82	0.0302957
46	62	60	43	-25.25	0.030396
46	62	43	59	17.12	0.0305841
46	62	59	42	-13.39	0.0307468
46	62	42	58	9.7	0.0310309
46	62	58	41	-7.8	0.0312821
46	62	41	57	5.4	0.0318519
46	62	57	40	-4.47	0.0322371
46	62	40	56	3.45	0.0328986
46	62	56	39	-2.9	0.0334483
46	62	39	55	2.32	0.0343103
46	62	55	38	-2.01	0.0349751
46	62	38	54	1.63	0.036135
46	62	54	37	-1.46	0.0368493
45	61	44	60	86.77	0.0301152
45	61	60	43	-60.42	0.0301655
45	61	43	59	36.67	0.0302727
45	61	59	42	-27.34	0.0303658
45	61	42	58	18.85	0.0305305
45	61	58	41	-14.64	0.0306831
45	61	41	57	10.76	0.0309294
45	61	57	40	-8.66	0.0311547
45	61	40	56	6.04	0.0316556
45	61	56	39	-4.95	0.0320202
45	61	39	55	3.9	0.0325641
45	61	55	38	-3.3	0.0330303
45	61	38	54	2.66	0.0337594
45	61	54	37	-2.34	0.0342735
45	61	37	53	1.95	0.0351282
45	61	53	36	-1.72	0.035814
44	60	43	59	89.84	0.0301113
44	60	59	42	-62.08	0.0301611
44	60	42	58	38.57	0.0302593
44	60	58	41	-28.43	0.0303517
44	60	41	57	19.97	0.0305008
44	60	57	40	-15.46	0.0306468
44	60	40	56	11.32	0.0308834
44	60	56	39	-8.99	0.0311123
44	60	39	55	6.47	0.0315456
44	60	55	38	-5.33	0.0318762
44	60	38	54	4.23	0.0323641
44	60	54	37	-3.64	0.0327473
44	60	37	53	3	0.0333333
44	60	53	36	-2.61	0.0338314
44	60	36	52	2.25	0.0344444
44	60	52	35	-2.03	0.0349261
43	59	42	58	92.56	0.030108
43	59	58	41	-63.98	0.0301563
43	59	41	57	40.02	0.0302499
43	59	57	40	-29.61	0.0303377
43	59	40	56	20.37	0.0304909
43	59	56	39	-15.68	0.0306378
43	59	39	55	11.78	0.0308489
43	59	55	38	-9.5	0.0310526
43	59	38	54	6.75	0.0314815
43	59	54	37	-5.68	0.0317606
43	59	37	53	4.59	0.0321786
43	59	53	36	-3.9	0.0325641
43	59	36	52	3.33	0.033003
43	59	52	35	-2.96	0.0333784
43	59	35	51	2.56	0.0339062
43	59	51	34	-2.41	0.0341494
42	58	41	57	94.63	0.0301057
42	58	57	40	-65.49	0.0301527
42	58	40	56	39.71	0.0302518
42	58	56	39	-29.15	0.0303431
42	58	39	55	21.05	0.0304751
42	58	55	38	-16.52	0.0306053
42	58	38	54	12.14	0.0308237
42	58	54	37	-9.98	0.031002
42	58	37	53	7.13	0.0314025
42	58	53	36	-5.93	0.0316863
42	58	36	52	4.95	0.0320202
42	58	52	35	-4.33	0.0323095
42	58	35	51	3.68	0.0327174
42	58	51	34	-3.44	0.032907
42	58	34	50	3.15	0.0331746
42	58	50	33	-2.88	0.0334722
41	57	40	56	92.97	0.0301076
41	57	56	39	-62.97	0.0301588
41	57	39	55	42.76	0.0302339
41	57	55	38	-32.24	0.0303102
41	57	38	54	21.96	0.0304554
41	57	54	37	-17.4	0.0305747
41	57	37	53	13.04	0.0307669
41	57	53	36	-10.52	0.0309506
41	57	36	52	7.7	0.0312987
41	57	52	35	-6.59	0.0315175
41	57	35	51	5.45	0.0318349
41	57	51	34	-5.03	0.0319881
41	57	34	50	4.58	0.0321834
41	57	50	33	-4.15	0.0324096
41	57	33	49	3.96	0.0325253
40	56	39	55	94.81	0.0301055
40	56	55	38	-64.89	0.0301541
40	56	38	54	42.58	0.0302349
40	56	54	37	-31.64	0.0303161
40	56	37	53	23.05	0.0304338
40	56	53	36	-17.4	0.0305747
40	56	36	52	14.01	0.0307138
40	56	52	35	-11.64	0.0308591
40	56	35	51	8.45	0.0311834
40	56	51	34	-7.68	0.0313021
40	56	34	50	6.9	0.0314493
40	56	50	33	-6.21	0.0316103
40	56	33	49	5.88	0.0317007
39	55	38	54	111.55	0.0300896
39	55	54	37	-77.86	0.0301284
39	55	37	53	48.81	0.0302049
39	55	53	36	-35.43	0.0302822
39	55	36	52	26.04	0.030384
39	55	52	35	-20.84	0.0304798
39	55	35	51	15.82	0.0306321
39	55	51	34	-14.12	0.0307082
39	55	34	50	11.07	0.0309033
39	55	50	33	-9.87	0.0310132
39	55	33	49	9.23	0.0310834
38	54	37	53	119.38	0.0300838
38	54	53	36	-79.89	0.0301252
38	54	36	52	51.78	0.0301931
38	54	52	35	-39.2	0.0302551
38	54	35	51	27.36	0.0303655
38	54	51	34	-23.86	0.0304191
38	54	34	50	20.29	0.0304929
38	54	50	33	-17.88	0.0305593
38	54	33	49	14.64	0.0306831
37	53	36	52	122.61	0.0300816
37	53	52	35	-87.08	0.0301148
37	53	35	51	50.86	0.0301966
37	53	51	34	-42.93	0.0302329
37	53	34	50	34.73	0.0302879
37	53	50	33	-30.16	0.0303316
37	53	33	49	27.12	0.0303687
34	50	33	49	277.23	0.0300361
64	80	63	79	45.92	0.0302178
64	80	79	62	-28.82	0.030347
64	80	62	78	18.56	0.0305388
64	80	78	61	-12.95	0.0307722
64	80	61	77	9.03	0.0311074
64	80	77	60	-6.62	0.0315106
64	80	60	76	5.13	0.0319493
64	80	76	59	-3.87	0.032584
64	80	59	75	3.07	0.0332573
64	80	75	58	-2.36	0.0342373
64	80	58	74	1.99	0.0350251
64	80	74	57	-1.56	0.0364103
64	80	57	73	1.35	0.0374074
64	80	73	56	-1.06	0.039434
64	80	56	72	0.94	0.0406383
64	80	72	55	-0.76	0.0431579
63	79	62	78	77.27	0.0301294
63	79	78	61	-57.34	0.0301744
63	79	61	77	29.1	0.0303436
63	79	77	60	-22.19	0.0304507
63	79	60	76	14.71	0.0306798
63	79	76	59	-11.49	0.0308703
63	79	59	75	8.28	0.0312077
63	79	75	58	-6.61	0.0315129
63	79	58	74	4.48	0.0322321
63	79	74	57	-3.64	0.0327473
63	79	57	73	2.85	0.0335088
63	79	73	56	-2.33	0.0342918
63	79	56	72	1.91	0.0352356
63	79	72	55	-1.59	0.0362893
63	79	55	71	1.34	0.0374627
63	79	71	54	-1.13	0.0388496
62	78	61	77	77.81	0.0301285
62	78	77	60	-56.01	0.0301785
62	78	60	76	32.58	0.0303069
62	78	76	59	-24.54	0.0304075
62	78	59	75	16.74	0.0305974
62	78	75	58	-13.03	0.0307675
62	78	58	74	9.58	0.0310438
62	78	74	57	-7.64	0.0313089
62	78	57	73	5.25	0.0319048
62	78	73	56	-4.19	0.0323866
62	78	56	72	3.37	0.0329674
62	78	72	55	-2.77	0.0336101
62	78	55	71	2.3	0.0343478
62	78	71	54	-1.92	0.0352083
62	78	54	70	1.63	0.036135
62	78	70	53	-1.39	0.0371942
61	77	60	76	87.29	0.0301146
61	77	76	59	-63.62	0.0301572
61	77	59	75	35.94	0.0302782
61	77	75	58	-27.39	0.0303651
61	77	58	74	18.53	0.0305397
61	77	74	57	-14.62	0.030684
61	77	57	73	10.59	0.0309443
61	77	73	56	-8.4	0.0311905
61	77	56	72	5.87	0.0317036
61	77	72	55	-4.8	0.0320833
61	77	55	71	3.87	0.032584
61	77	71	54	-3.21	0.0331153
61	77	54	70	2.64	0.0337879
61	77	70	53	-2.25	0.0344444
61	77	53	69	1.89	0.035291
61	77	69	52	-1.65	0.0360606
60	76	59	75	89.01	0.0301123
60	76	75	58	-65.38	0.030153
60	76	58	74	36.86	0.0302713
60	76	74	57	-28.32	0.0303531
60	76	57	73	19.02	0.0305258
60	76	73	56	-14.8	0.0306757
60	76	56	72	10.9	0.0309174
60	76	72	55	-8.83	0.0311325
60	76	55	71	6.22	0.0316077
60	76	71	54	-5.1	0.0319608
60	76	54	70	4.09	0.032445
60	76	70	53	-3.44	0.032907
60	76	53	69	2.82	0.0335461
60	76	69	52	-2.46	0.034065
60	76	52	68	2.11	0.0347393
60	76	68	51	-1.83	0.0354645
59	75	58	74	91.48	0.0301093
59	75	74	57	-67.33	0.0301485
59	75	57	73	37.67	0.0302655
59	75	73	56	-28.31	0.0303532
59	75	56	72	19.38	0.030516
59	75	72	55	-15.42	0.0306485
59	75	55	71	11.55	0.0308658
59	75	71	54	-9.32	0.031073
59	75	54	70	6.53	0.0315314
59	75	70	53	-5.43	0.0318416
59	75	53	69	4.33	0.0323095
59	75	69	52	-3.74	0.0326738
59	75	52	68	3.15	0.0331746
59	75	68	51	-2.7	0.0337037
59	75	51	67	2.36	0.0342373
59	75	67	50	-2.19	0.0345662
58	74	57	73	91.06	0.0301098
58	74	73	56	-65.01	0.0301538
58	74	56	72	37.24	0.0302685
58	74	72	55	-29.09	0.0303438
58	74	55	71	20.35	0.0304914
58	74	71	54	-15.94	0.0306274
58	74	54	70	11.82	0.030846
58	74	70	53	-9.64	0.0310373
58	74	53	69	6.7	0.0314925
58	74	69	52	-5.69	0.0317575
58	74	52	68	4.67	0.0321413
58	74	68	51	-3.96	0.0325253
58	74	51	67	3.4	0.0329412
58	74	67	50	-3.13	0.0331949
58	74	50	66	2.85	0.0335088
58	74	66	49	-2.67	0.0337453
57	73	56	72	90.83	0.0301101
57	73	72	55	-70.72	0.0301414
57	73	55	71	41.24	0.0302425
57	73	71	54	-30.91	0.0303235
57	73	54	70	21.1	0.0304739
57	73	70	53	-16.73	0.0305977
57	73	53	69	12.22	0.0308183
57	73	69	52	-10.19	0.0309814
57	73	52	68	7.33	0.0313643
57	73	68	51	-6.08	0.0316447
57	73	51	67	5.09	0.0319646
57	73	67	50	-4.64	0.0321552
57	73	50	66	4.15	0.0324096
57	73	66	49	-3.87	0.032584
57	73	49	65	3.69	0.03271
56	72	55	71	94.78	0.0301055
56	72	71	54	-72.3	0.0301383
56	72	54	70	40.04	0.0302498
56	72	70	53	-31.78	0.0303147
56	72	53	69	20.97	0.0304769
56	72	69	52	-17.22	0.0305807
56	72	52	68	13.05	0.0307663
56	72	68	51	-10.62	0.0309416
56	72	51	67	7.74	0.031292
56	72	67	50	-6.97	0.0314347
56	72	50	66	6.1	0.0316393
56	72	66	49	-5.66	0.0317668
56	72	49	65	5.35	0.0318692
55	71	54	70	105.87	0.0300945
55	71	70	53	-76.71	0.0301304
55	71	53	69	42.68	0.0302343
55	71	69	52	-33.19	0.0303013
55	71	52	68	23.52	0.0304252
55	71	68	51	-18.27	0.0305473
55	71	51	67	14.23	0.0307027
55	71	67	50	-12.52	0.0307987
55	71	50	66	9.63	0.0310384
55	71	66	49	-8.8	0.0311364
55	71	49	65	8.24	0.0312136
54	70	53	69	108.02	0.0300926
54	70	69	52	-79.59	0.0301256
54	70	52	68	46.77	0.0302138
54	70	68	51	-34.62	0.0302889
54	70	51	67	24.83	0.0304027
54	70	67	50	-21.31	0.0304693
54	70	50	66	17.49	0.0305718
54	70	66	49	-15.8	0.0306329
54	70	49	65	12.97	0.030771
53	69	52	68	120.89	0.0300827
53	69	68	51	-83.96	0.0301191
53	69	51	67	48.29	0.0302071
53	69	67	50	-40.15	0.0302491
53	69	50	66	30.47	0.0303282
53	69	66	49	-27.03	0.03037
53	69	49	65	24.14	0.0304143
52	68	51	67	112.34	0.030089
52	68	67	50	-89.16	0.0301122
52	68	50	66	55.94	0.0301788
52	68	66	49	-48.49	0.0302062
52	68	49	65	41.16	0.030243
80	96	79	95	38.22	0.0302616
80	96	95	78	-28.21	0.0303545
80	96	78	94	15.37	0.0306506
80	96	94	77	-11.65	0.0308584
80	96	77	93	7.36	0.0313587
80	96	93	76	-5.97	0.031675
80	96	76	92	4.1	0.032439
80	96	92	75	-3.4	0.0329412
80	96	75	91	2.46	0.034065
80	96	91	74	-2.09	0.0347847
80	96	74	90	1.57	0.0363694
80	96	90	73	-1.36	0.0373529
80	96	73	89	1.05	0.0395238
80	96	89	72	-0.93	0.0407527
80	96	72	88	0.74	0.0435135
80	96	88	71	-0.67	0.0449254
79	95	78	94	83.69	0.0301195
79	95	94	77	-55.31	0.0301808
79	95	77	93	29.62	0.0303376
79	95	93	76	-22.25	0.0304494
79	95	76	92	14.25	0.0307018
79	95	92	75	-11.13	0.0308985
79	95	75	91	7.77	0.031287
79	95	91	74	-6.24	0.0316026
79	95	74	90	4.07	0.032457
79	95	90	73	-3.34	0.032994
79	95	73	89	2.53	0.0339526
79	95	89	72	-2.13	0.0346948
79	95	72	88	1.69	0.0359172
79	95	88	71	-1.49	0.0367114
79	95	71	87	1.17	0.038547
79	95	87	70	-1.02	0.0398039
78	94	77	93	81.89	0.0301221
78	94	93	76	-58.35	0.0301714
78	94	76	92	31.59	0.0303166
78	94	92	75	-23.91	0.0304182
78	94	75	91	15.63	0.0306398
78	94	91	74	-12.28	0.0308143
78	94	74	90	8.65	0.0311561
78	94	90	73	-6.96	0.0314368
78	94	73	89	4.63	0.0321598
78	94	89	72	-3.83	0.032611
78	94	72	88	2.97	0.033367
78	94	88	71	-2.55	0.0339216
78	94	71	87	2	0.035
78	94	87	70	-1.73	0.0357803
78	94	70	86	1.4	0.0371429
78	94	86	69	-1.23	0.0381301
77	93	76	92	88.16	0.0301134
77	93	92	75	-60.33	0.0301658
77	93	75	91	34.15	0.0302928
77	93	91	74	-25.43	0.0303932
77	93	74	90	16.93	0.0305907
77	93	90	73	-13.08	0.0307645
77	93	73	89	9.37	0.0310672
77	93	89	72	-7.52	0.0313298
77	93	72	88	5.16	0.031938
77	93	88	71	-4.3	0.0323256
77	93	71	87	3.35	0.0329851
77	93	87	70	-2.81	0.0335587
77	93	70	86	2.27	0.0344053
77	93	86	69	-1.95	0.0351282
77	93	69	85	1.6	0.03625
77	93	85	68	-1.42	0.0370423
76	92	75	91	90.82	0.0301101
76	92	91	74	-62.16	0.0301609
76	92	74	90	35.04	0.0302854
76	92	90	73	-25.91	0.030386
76	92	73	89	17.33	0.030577
76	92	89	72	-13.53	0.0307391
76	92	72	88	9.91	0.0310091
76	92	88	71	-8.09	0.0312361
76	92	71	87	5.52	0.0318116
76	92	87	70	-4.56	0.032193
76	92	70	86	3.61	0.0327701
76	92	86	69	-3.04	0.0332895
76	92	69	85	2.46	0.034065
76	92	85	68	-2.17	0.0346083
76	92	68	84	1.8	0.0355556
76	92	84	67	-1.62	0.0361728
75	91	74	90	91.81	0.0301089
75	91	90	73	-62.09	0.0301611
75	91	73	89	34.96	0.030286
75	91	89	72	-26.12	0.0303828
75	91	72	88	17.88	0.0305593
75	91	88	71	-14.17	0.0307057
75	91	71	87	10.31	0.0309699
75	91	87	70	-8.32	0.0312019
75	91	70	86	5.8	0.0317241
75	91	86	69	-4.79	0.0320877
75	91	69	85	3.8	0.0326316
75	91	85	68	-3.28	0.0330488
75	91	68	84	2.68	0.0337313
75	91	84	67	-2.39	0.0341841
75	91	67	83	2.01	0.0349751
75	91	83	66	-1.83	0.0354645
74	90	73	89	90.71	0.0301102
74	90	89	72	-62.65	0.0301596
74	90	72	88	35.93	0.0302783
74	90	88	71	-27.4	0.030365
74	90	71	87	18.52	0.03054
74	90	87	70	-14.51	0.0306892
74	90	70	86	10.69	0.0309355
74	90	86	69	-8.62	0.0311601
74	90	69	85	5.99	0.0316694
74	90	85	68	-5.08	0.0319685
74	90	68	84	4.05	0.0324691
74	90	84	67	-3.56	0.032809
74	90	67	83	2.92	0.0334247
74	90	83	66	-2.65	0.0337736
74	90	66	82	2.35	0.0342553
74	90	82	65	-2.21	0.0345249
73	89	72	88	96.17	0.030104
73	89	88	71	-66.95	0.0301494
73	89	71	87	38.06	0.0302627
73	89	87	70	-28.37	0.0303525
73	89	70	86	19.44	0.0305144
73	89	86	69	-15.13	0.0306609
73	89	69	85	11.14	0.0308977
73	89	85	68	-9.22	0.0310846
73	89	68	84	6.44	0.0315528
73	89	84	67	-5.54	0.0318051
73	89	67	83	4.44	0.0322523
73	89	83	66	-3.96	0.0325253
73	89	66	82	3.45	0.0328986
73	89	82	65	-3.23	0.033096
73	89	65	81	2.98	0.0333557
72	88	67	83	6.77	0.0314771
72	88	83	66	-5.92	0.0316892
72	88	66	82	5.06	0.0319763
72	88	82	65	-4.69	0.0321322
72	88	65	81	4.28	0.0323364
71	87	66	82	7.93	0.031261
71	87	82	65	-7.26	0.0313774
71	87	65	81	6.49	0.0315408
70	86	65	81	10.2	0.0309804
96	112	95	111	40.51	0.0302469
96	112	111	94	-27.45	0.0303643
96	112	94	110	16.79	0.0305956
96	112	110	93	-12.46	0.0308026
96	112	93	109	8.58	0.0311655
96	112	109	92	-6.66	0.0315015
96	112	92	108	4.87	0.0320534
96	112	108	91	-3.9	0.0325641
96	112	91	107	2.95	0.0333898
96	112	107	90	-2.39	0.0341841
96	112	90	106	1.83	0.0354645
96	112	106	89	-1.5	0.0366667
96	112	89	105	1.21	0.0382645
96	112	105	88	-1.01	0.039901
96	112	88	104	0.85	0.0417647
96	112	104	87	-0.71	0.0440845
95	111	94	110	82.82	0.0301207
95	111	110	93	-57.03	0.0301753
95	111	93	109	32.23	0.0303103
95	111	109	92	-24.13	0.0304144
95	111	92	108	15.73	0.0306357
95	111	108	91	-12.29	0.0308137
95	111	91	107	8.58	0.0311655
95	111	107	90	-6.8	0.0314706
95	111	90	106	4.37	0.0322883
95	111	106	89	-3.46	0.0328902
95	111	89	105	2.67	0.0337453
95	111	105	88	-2.15	0.0346512
95	111	88	104	1.75	0.0357143
95	111	104	87	-1.42	0.0370423
95	111	87	103	1.22	0.0381967
95	111	103	86	-1	0.04
94	110	93	109	92.35	0.0301083
94	110	109	92	-65.23	0.0301533
94	110	92	108	37.15	0.0302692
94	110	108	91	-28.77	0.0303476
94	110	91	107	18.46	0.0305417
94	110	107	90	-14.7	0.0306803
94	110	90	106	9.78	0.0310225
94	110	106	89	-7.83	0.0312771
94	110	89	105	5.12	0.0319531
94	110	105	88	-4.17	0.0323981
94	110	88	104	3.23	0.033096
94	110	104	87	-2.65	0.0337736
94	110	87	103	2.18	0.0345872
94	110	103	86	-1.82	0.0354945
94	110	86	102	1.54	0.0364935
94	110	102	85	-1.31	0.0376336
93	109	92	108	95.46	0.0301048
93	109	108	91	-69.06	0.0301448
93	109	91	107	39.02	0.0302563
93	109	107	90	-30.39	0.0303291
93	109	90	106	18.53	0.0305397
93	109	106	89	-14.68	0.0306812
93	109	89	105	10.15	0.0309852
93	109	105	88	-8.22	0.0312165
93	109	88	104	5.5	0.0318182
93	109	104	87	-4.49	0.0322272
93	109	87	103	3.59	0.0327855
93	109	103	86	-2.98	0.0333557
93	109	86	102	2.46	0.034065
93	109	102	85	-2.09	0.0347847
93	109	85	101	1.75	0.0357143
93	109	101	84	-1.49	0.0367114
92	108	91	107	97.12	0.030103
92	108	107	90	-69.68	0.0301435
92	108	90	106	36.78	0.0302719
92	108	106	89	-28.06	0.0303564
92	108	89	105	18.22	0.0305488
92	108	105	88	-14.44	0.0306925
92	108	88	104	10.34	0.0309671
92	108	104	87	-8.3	0.0312048
92	108	87	103	5.79	0.0317271
92	108	103	86	-4.75	0.0321053
92	108	86	102	3.82	0.0326178
92	108	102	85	-3.21	0.0331153
92	108	85	101	2.64	0.0337879
92	108	101	84	-2.23	0.0344843
92	108	84	100	1.9	0.0352632
92	108	100	83	-1.61	0.0362112
91	107	90	106	91.64	0.0301091
91	107	106	89	-64.2	0.0301558
91	107	89	105	35.92	0.0302784
91	107	105	88	-27.49	0.0303638
91	107	88	104	18.42	0.0305429
91	107	104	87	-14.5	0.0306897
91	107	87	103	10.78	0.0309276
91	107	103	86	-8.74	0.0311442
91	107	86	102	6.1	0.0316393
91	107	102	85	-5.07	0.0319724
91	107	85	101	4.06	0.0324631
91	107	101	84	-3.39	0.0329499
91	107	84	100	2.82	0.0335461
91	107	100	83	-2.38	0.0342017
91	107	83	99	2.06	0.0348544
91	107	99	82	-1.81	0.0355249
90	106	89	105	93.72	0.0301067
90	106	105	88	-66.65	0.03015
90	106	88	104	37.37	0.0302676
90	106	104	87	-28.49	0.030351
90	106	87	103	19.61	0.0305099
90	106	103	86	-15.65	0.030639
90	106	86	102	11.55	0.0308658
90	106	102	85	-9.52	0.0310504
90	106	85	101	6.58	0.0315198
90	106	101	84	-5.45	0.0318349
90	106	84	100	4.36	0.0322936
90	106	100	83	-3.66	0.0327322
90	106	83	99	3.08	0.0332468
90	106	99	82	-2.71	0.03369
90	106	82	98	2.38	0.0342017
90	106	98	81	-2.16	0.0346296
89	105	88	104	96.4	0.0301037
89	105	104	87	-67.34	0.0301485
89	105	87	103	39.37	0.030254
89	105	103	86	-30.35	0.0303295
89	105	86	102	20.72	0.0304826
89	105	102	85	-16.73	0.0305977
89	105	85	101	12.13	0.0308244
89	105	101	84	-9.92	0.0310081
89	105	84	100	6.86	0.0314577
89	105	100	83	-5.67	0.0317637
89	105	83	99	4.64	0.0321552
89	105	99	82	-4.03	0.0324814
89	105	82	98	3.47	0.0328818
89	105	98	81	-3.13	0.0331949
89	105	81	97	2.82	0.0335461
88	104	87	103	101.99	0.030098
88	104	103	86	-72.97	0.030137
88	104	86	102	41.32	0.030242
88	104	102	85	-32.2	0.0303106
88	104	85	101	21.39	0.0304675
88	104	101	84	-17.11	0.0305845
88	104	84	100	12.39	0.0308071
88	104	100	83	-10.06	0.030994
88	104	83	99	7.1	0.0314085
88	104	99	82	-6.09	0.031642
88	104	82	98	5.11	0.0319569
88	104	98	81	-4.55	0.0321978
88	104	81	97	4.03	0.0324814
87	103	82	98	7.81	0.0312804
87	103	98	81	-6.85	0.0314599
87	103	81	97	5.94	0.0316835
86	102	81	97	9.05	0.031105
112	128	111	127	38.58	0.0302592
112	128	127	110	-27.89	0.0303586
112	128	110	126	16.02	0.0306242
112	128	126	109	-12.21	0.030819
112	128	109	125	8.26	0.0312107
112	128	125	108	-6.52	0.0315337
112	128	108	124	4.7	0.0321277
112	128	124	107	-3.8	0.0326316
112	128	107	123	2.82	0.0335461
112	128	123	106	-2.29	0.0343668
112	128	106	122	1.75	0.0357143
112	128	122	105	-1.48	0.0367568
112	128	105	121	1.18	0.0384746
112	128	121	104	-1.03	0.0397087
112	128	104	120	0.82	0.0421951
112	128	120	103	-0.74	0.0435135
111	127	110	126	81.02	0.0301234
111	127	126	109	-56.05	0.0301784
111	127	109	125	32.01	0.0303124
111	127	125	108	-23.63	0.0304232
111	127	108	124	15.74	0.0306353
111	127	124	107	-12.14	0.0308237
111	127	107	123	8.51	0.0311751
111	127	123	106	-6.63	0.0315083
111	127	106	122	4.33	0.0323095
111	127	122	105	-3.57	0.0328011
111	127	105	121	2.71	0.03369
111	127	121	104	-2.33	0.0342918
111	127	104	120	1.78	0.035618
111	127	120	103	-1.58	0.0363291
111	127	103	119	1.23	0.0381301
111	127	119	102	-1.11	0.039009
110	126	109	125	91.81	0.0301089
110	126	125	108	-63.58	0.0301573
110	126	108	124	37.55	0.0302663
110	126	124	107	-27.36	0.0303655
110	126	107	123	18.45	0.030542
110	126	123	106	-13.63	0.0307337
110	126	106	122	9.73	0.0310277
110	126	122	105	-7.69	0.0313004
110	126	105	121	5.22	0.0319157
110	126	121	104	-4.32	0.0323148
110	126	104	120	3.28	0.0330488
110	126	120	103	-2.83	0.0335336
110	126	103	119	2.2	0.0345455
110	126	119	102	-1.94	0.0351546
110	126	102	118	1.53	0.0365359
110	126	118	101	-1.36	0.0373529
109	125	108	124	98.9	0.0301011
109	125	124	107	-68.77	0.0301454
109	125	107	123	39.93	0.0302504
109	125	123	106	-28.05	0.0303565
109	125	106	122	18.85	0.0305305
109	125	122	105	-14.44	0.0306925
109	125	105	121	10.55	0.0309479
109	125	121	104	-8.53	0.0311723
109	125	104	120	5.66	0.0317668
109	125	120	103	-4.77	0.0320964
109	125	103	119	3.67	0.0327248
109	125	119	102	-3.16	0.0331646
109	125	102	118	2.47	0.0340486
109	125	118	101	-2.16	0.0346296
109	125	101	117	1.72	0.035814
109	125	117	100	-1.53	0.0365359
108	124	107	123	98.72	0.0301013
108	124	123	106	-65.39	0.0301529
108	124	106	122	37.52	0.0302665
108	124	122	105	-27.75	0.0303604
108	124	105	121	19.04	0.0305252
108	124	121	104	-15.03	0.0306653
108	124	104	120	10.73	0.030932
108	124	120	103	-8.89	0.0311249
108	124	103	119	5.96	0.0316779
108	124	119	102	-5.04	0.0319841
108	124	102	118	3.86	0.0325907
108	124	118	101	-3.32	0.033012
108	124	101	117	2.61	0.0338314
108	124	117	100	-2.29	0.0343668
108	124	100	116	1.84	0.0354348
108	124	116	99	-1.67	0.035988
107	123	106	122	92.45	0.0301082
107	123	122	105	-63.64	0.0301571
107	123	105	121	37.45	0.030267
107	123	121	104	-28.47	0.0303512
107	123	104	120	19	0.0305263
107	123	120	103	-15.34	0.0306519
107	123	103	119	11.07	0.0309033
107	123	119	102	-9.17	0.0310905
107	123	102	118	6.14	0.0316287
107	123	118	101	-5.17	0.0319342
107	123	101	117	3.99	0.0325063
107	123	117	100	-3.43	0.0329155
107	123	100	116	2.72	0.0336765
107	123	116	99	-2.43	0.0341152
107	123	99	115	1.71	0.035848
107	123	115	98	-1.57	0.0363694
106	122	105	121	96.24	0.0301039
106	122	121	104	-66.85	0.0301496
106	122	104	120	37.9	0.0302639
106	122	120	103	-29.06	0.0303441
106	122	103	119	19.82	0.0305045
106	122	119	102	-15.77	0.0306341
106	122	102	118	11.43	0.0308749
106	122	118	101	-9.27	0.0310787
106	122	101	117	6.34	0.0315773
106	122	117	100	-5.27	0.0318975
106	122	100	116	4.14	0.0324155
106	122	116	99	-3.6	0.0327778
106	122	99	115	2.51	0.0339841
106	122	115	98	-2.22	0.0345045
106	122	98	114	2.59	0.033861
106	122	114	97	-2.43	0.0341152
105	121	104	120	92.97	0.0301076
105	121	120	103	-64.83	0.0301542
105	121	103	119	38.5	0.0302597
105	121	119	102	-28.96	0.0303453
105	121	102	118	19.91	0.0305023
105	121	118	101	-15.45	0.0306472
105	121	101	117	11.39	0.030878
105	121	117	100	-9.13	0.0310953
105	121	100	116	6.33	0.0315798
105	121	116	99	-5.33	0.0318762
105	121	99	115	3.66	0.0327322
105	121	115	98	-3.14	0.0331847
105	121	98	114	3.7	0.0327027
105	121	114	97	-3.42	0.032924
105	121	97	113	2.56	0.0339062
104	120	103	119	99.85	0.0301002
104	120	119	102	-68.03	0.030147
104	120	102	118	39.81	0.0302512
104	120	118	101	-29.12	0.0303434
104	120	101	117	20.15	0.0304963
104	120	117	100	-15.5	0.0306452
104	120	100	116	11.51	0.0308688
104	120	116	99	-9.42	0.0310616
104	120	99	115	5.53	0.0318083
104	120	115	98	-4.6	0.0321739
104	120	98	114	5.52	0.0318116
104	120	114	97	-5.05	0.0319802
104	120	97	113	3.63	0.0327548
103	119	102	118	102.04	0.030098
103	119	118	101	-68.41	0.0301462
103	119	101	117	39.71	0.0302518
103	119	117	100	-29.01	0.0303447
103	119	100	116	20.08	0.030498
103	119	116	99	-15.91	0.0306285
103	119	99	115	9.72	0.0310288
103	119	115	98	-7.86	0.0312723
103	119	98	114	8.71	0.0311481
103	119	114	97	-7.86	0.0312723
103	119	97	113	5.34	0.0318727
102	118	101	117	104.95	0.0300953
102	118	117	100	-69.64	0.0301436
102	118	100	116	40.33	0.030248
102	118	116	99	-30.34	0.0303296
102	118	99	115	16.84	0.0305938
102	118	115	98	-12.79	0.0307819
102	118	98	114	16.6	0.0306024
102	118	114	97	-14.77	0.030677
102	118	97	113	8.21	0.031218
128	144	127	143	55.08	0.0301816
128	144	143	126	-42.86	0.0302333
128	144	126	142	20.85	0.0304796
128	144	142	125	-16.75	0.030597
128	144	125	141	10.3	0.0309709
128	144	141	124	-8.47	0.0311806
128	144	124	140	5.67	0.0317637
128	144	140	123	-4.75	0.0321053
128	144	123	139	2.92	0.0334247
128	144	139	122	-2.51	0.0339841
128	144	122	138	1.84	0.0354348
128	144	138	121	-1.62	0.0361728
128	144	121	137	1.23	0.0381301
128	144	137	120	-1.1	0.0390909
128	144	120	136	0.86	0.0416279
128	144	136	119	-0.78	0.0428205
127	143	126	142	84.18	0.0301188
127	143	142	125	-59.7	0.0301675
127	143	125	141	33.04	0.0303027
127	143	141	124	-25.09	0.0303986
127	143	124	140	16.27	0.0306146
127	143	140	123	-12.71	0.0307868
127	143	123	139	8.84	0.0311312
127	143	139	122	-7.14	0.0314006
127	143	122	138	4.65	0.0321505
127	143	138	121	-3.88	0.0325773
127	143	121	137	2.96	0.0333784
127	143	137	120	-2.49	0.0340161
127	143	120	136	1.97	0.0350761
127	143	136	119	-1.68	0.0359524
127	143	119	135	1.36	0.0373529
127	143	135	118	-1.18	0.0384746
126	142	125	141	92.12	0.0301086
126	142	141	124	-65.6	0.0301524
126	142	124	140	36.51	0.0302739
126	142	140	123	-27.6	0.0303623
126	142	123	139	17.98	0.0305562
126	142	139	122	-14.17	0.0307057
126	142	122	138	9.97	0.031003
126	142	138	121	-8.19	0.031221
126	142	121	137	5.43	0.0318416
126	142	137	120	-4.49	0.0322272
126	142	120	136	3.48	0.0328736
126	142	136	119	-2.93	0.033413
126	142	119	135	2.34	0.0342735
126	142	135	118	-1.99	0.0350251
126	142	118	134	1.62	0.0361728
126	142	134	117	-1.4	0.0371429
125	141	124	140	97.32	0.0301028
125	141	140	123	-68.07	0.0301469
125	141	123	139	37.96	0.0302634
125	141	139	122	-28.79	0.0303473
125	141	122	138	18.96	0.0305274
125	141	138	121	-15.15	0.0306601
125	141	121	137	10.84	0.0309225
125	141	137	120	-8.76	0.0311416
125	141	120	136	5.95	0.0316807
125	141	136	119	-4.91	0.0320367
125	141	119	135	3.86	0.0325907
125	141	135	118	-3.22	0.0331056
125	141	118	134	2.58	0.033876
125	141	134	117	-2.19	0.0345662
125	141	117	133	1.82	0.0354945
125	141	133	116	-1.59	0.0362893
124	140	123	139	96.26	0.0301039
124	140	139	122	-68.02	0.030147
124	140	122	138	38.19	0.0302618
124	140	138	121	-29.5	0.030339
124	140	121	137	19.75	0.0305063
124	140	137	120	-15.55	0.0306431
124	140	120	136	11.33	0.0308826
124	140	136	119	-9.18	0.0310893
124	140	119	135	6.26	0.0315974
124	140	135	118	-5.14	0.0319455
124	140	118	134	4.03	0.0324814
124	140	134	117	-3.38	0.0329586
124	140	117	133	2.75	0.0336364
124	140	133	116	-2.37	0.0342194
124	140	116	132	1.99	0.0350251
124	140	132	115	-1.58	0.0363291
123	139	122	138	94.14	0.0301062
123	139	138	121	-67.56	0.030148
123	139	121	137	38.87	0.0302573
123	139	137	120	-29.43	0.0303398
123	139	120	136	20.15	0.0304963
123	139	136	119	-15.9	0.0306289
123	139	119	135	11.72	0.0308532
123	139	135	118	-9.44	0.0310593
123	139	118	134	6.42	0.0315576
123	139	134	117	-5.29	0.0318904
123	139	117	133	4.21	0.0323753
123	139	133	116	-3.58	0.0327933
123	139	116	132	2.96	0.0333784
123	139	132	115	-2.3	0.0343478
123	139	115	131	1.94	0.0351546
123	139	131	114	-2.19	0.0345662
122	138	121	137	96.57	0.0301036
122	138	137	120	-66.52	0.0301503
122	138	120	136	39.16	0.0302554
122	138	136	119	-29.82	0.0303353
122	138	119	135	20.55	0.0304866
122	138	135	118	-16.15	0.0306192
122	138	118	134	11.8	0.0308475
122	138	134	117	-9.58	0.0310438
122	138	117	133	6.57	0.0315221
122	138	133	116	-5.5	0.0318182
122	138	116	132	4.44	0.0322523
122	138	132	115	-3.39	0.0329499
122	138	115	131	2.79	0.0335842
122	138	131	114	-3.19	0.0331348
122	138	114	130	2.85	0.0335088
122	138	130	113	-2.24	0.0344643
121	137	120	136	93.68	0.0301067
121	137	136	119	-67.64	0.0301478
121	137	119	135	39.31	0.0302544
121	137	135	118	-30.01	0.0303332
121	137	118	134	20.33	0.0304919
121	137	134	117	-16.22	0.0306165
121	137	117	133	11.89	0.030841
121	137	133	116	-9.84	0.0310163
121	137	116	132	6.81	0.0314684
121	137	132	115	-5.14	0.0319455
121	137	115	131	4.1	0.032439
121	137	131	114	-4.72	0.0321186
121	137	114	130	4.13	0.0324213
121	137	130	113	-3.2	0.033125
121	137	113	129	2.85	0.0335088
120	136	119	135	96.96	0.0301031
120	136	135	118	-68.17	0.0301467
120	136	118	134	39.26	0.0302547
120	136	134	117	-30.13	0.0303319
120	136	117	133	20.53	0.0304871
120	136	133	116	-16.54	0.0306046
120	136	116	132	12.34	0.0308104
120	136	132	115	-9.05	0.031105
120	136	115	131	6.22	0.0316077
120	136	131	114	-7.25	0.0313793
120	136	114	130	6.25	0.0316
120	136	130	113	-4.7	0.0321277
120	136	113	129	4.12	0.0324272
119	135	118	134	99.18	0.0301008
119	135	134	117	-69.86	0.0301431
119	135	117	133	39.88	0.0302508
119	135	133	116	-30.83	0.0303244
119	135	116	132	21.43	0.0304666
119	135	132	115	-15.11	0.0306618
119	135	115	131	11.06	0.0309042
119	135	131	114	-13.16	0.0307599
119	135	114	130	9.81	0.0310194
119	135	130	113	-7.07	0.0314144
119	135	113	129	6.08	0.0316447
118	134	113	129	9.21	0.0310858
